\relax 
\@writefile{lof}{\addvspace {10pt}}
\@writefile{lot}{\addvspace {10pt}}
\@writefile{toc}{\contentsline {chapter}{Dostoiévski e o parricídio}{9}}
\newlabel{destrutiva}{{\M@TitleReference {}{Dostoiévski e o parricídio}}{11}}
\newlabel{humanidade}{{\M@TitleReference {}{Dostoiévski e o parricídio}}{16}}
\newlabel{deslocado}{{\M@TitleReference {}{Dostoiévski e o parricídio}}{25}}
\@writefile{lof}{\addvspace {10pt}}
\@writefile{lot}{\addvspace {10pt}}
\@writefile{toc}{\contentsline {chapter}{O estranho}{33}}
\@writefile{toc}{\contentsline {section}{I.}{33}}
\@writefile{toc}{\contentsline {section}{\textsc  {\MakeTextLowercase  {II}}.}{43}}
\newlabel{aflora}{{\M@TitleReference {}{\textsc  {\MakeTextLowercase  {II}}.}}{62}}
\@writefile{toc}{\contentsline {section}{\textsc  {\MakeTextLowercase  {III}}}{67}}
\newlabel{retorna}{{\M@TitleReference {}{\textsc  {\MakeTextLowercase  {III}}}}{67}}
\@writefile{lof}{\addvspace {10pt}}
\@writefile{lot}{\addvspace {10pt}}
\@writefile{toc}{\contentsline {chapter}{O poeta e o fantasiar}{79}}
\newlabel{poesia}{{\M@TitleReference {}{O poeta e o fantasiar}}{80}}
\newlabel{outrora}{{\M@TitleReference {}{O poeta e o fantasiar}}{89}}
\@writefile{lof}{\addvspace {10pt}}
\@writefile{lot}{\addvspace {10pt}}
\@writefile{toc}{\contentsline {chapter}{Uma lembrança infantil de Poesia e verdade}{91}}
\@writefile{toc}{\contentsline {section}{I}{95}}
\@writefile{toc}{\contentsline {section}{\textsc  {\MakeTextLowercase  {II}}}{96}}
\@writefile{lof}{\addvspace {10pt}}
\@writefile{lot}{\addvspace {10pt}}
\@writefile{toc}{\contentsline {chapter}{Romance familiar do neurótico}{99}}
\@writefile{lof}{\addvspace {10pt}}
\@writefile{lot}{\addvspace {10pt}}
\@writefile{toc}{\contentsline {chapter}{Posfácio\emph  {, por{} Noemi Moritz Kon}}{105}}
\@writefile{toc}{\contentsline {section}{Psicanálise, arte e literatura}{107}}
\@writefile{toc}{\contentsline {section}{Os textos escolhidos}{118}}
\@setckpt{INPUTS}{
\setcounter{page}{125}
\setcounter{equation}{0}
\setcounter{enumi}{0}
\setcounter{enumii}{0}
\setcounter{enumiii}{0}
\setcounter{enumiv}{0}
\setcounter{footnote}{16}
\setcounter{mpfootnote}{0}
\setcounter{@memmarkcntra}{0}
\setcounter{storedpagenumber}{1}
\setcounter{book}{0}
\setcounter{part}{0}
\setcounter{chapter}{0}
\setcounter{section}{0}
\setcounter{subsection}{0}
\setcounter{subsubsection}{0}
\setcounter{paragraph}{0}
\setcounter{subparagraph}{0}
\setcounter{@ppsavesec}{0}
\setcounter{@ppsaveapp}{0}
\setcounter{vslineno}{0}
\setcounter{poemline}{0}
\setcounter{modulo@vs}{0}
\setcounter{memfvsline}{0}
\setcounter{verse}{0}
\setcounter{chrsinstr}{0}
\setcounter{poem}{0}
\setcounter{newflo@tctr}{4}
\setcounter{@contsubnum}{0}
\setcounter{maxsecnumdepth}{1}
\setcounter{sidefootnote}{0}
\setcounter{pagenote}{0}
\setcounter{pagenoteshadow}{0}
\setcounter{memfbvline}{0}
\setcounter{bvlinectr}{0}
\setcounter{cp@cntr}{0}
\setcounter{ism@mctr}{0}
\setcounter{xsm@mctr}{0}
\setcounter{csm@mctr}{0}
\setcounter{ksm@mctr}{0}
\setcounter{xksm@mctr}{0}
\setcounter{cksm@mctr}{0}
\setcounter{msm@mctr}{0}
\setcounter{xmsm@mctr}{0}
\setcounter{cmsm@mctr}{0}
\setcounter{bsm@mctr}{0}
\setcounter{workm@mctr}{0}
\setcounter{sheetsequence}{125}
\setcounter{lastsheet}{130}
\setcounter{lastpage}{130}
\setcounter{figure}{0}
\setcounter{lofdepth}{1}
\setcounter{table}{0}
\setcounter{lotdepth}{1}
\setcounter{DefaultLines}{2}
\setcounter{L@lines}{0}
\setcounter{lips@count}{0}
\setcounter{pp@next@reset}{0}
\setcounter{@sectionNumCenter}{0}
\setcounter{ContinuedFloat}{0}
\setcounter{PWSTtable}{0}
}
