\select@language {brazilian}
\contentsline {chapter}{Dostoiévski e o parricídio}{9}
\contentsline {chapter}{O estranho}{33}
\contentsline {section}{I.}{33}
\contentsline {section}{\textsc {\MakeTextLowercase {II}}.}{43}
\contentsline {section}{\textsc {\MakeTextLowercase {III}}}{67}
\contentsline {chapter}{O poeta e o fantasiar}{79}
\contentsline {chapter}{Uma lembrança infantil de Poesia e verdade}{91}
\contentsline {section}{I}{95}
\contentsline {section}{\textsc {\MakeTextLowercase {II}}}{96}
\contentsline {chapter}{Romance familiar do neurótico}{99}
\contentsline {chapter}{Posfácio\emph {, por{} Noemi Moritz Kon}}{105}
\contentsline {section}{Psicanálise, arte e literatura}{107}
\contentsline {section}{Os textos escolhidos}{118}
\contentsfinish 
